# Energy in atomic unit (1 Eh = 2625.499640 kJ/mol)
# -------------------------------------------------
# step         Total energy           Potential energy       External field energy
      0 -1.369758497458425E+001  -1.545386879664549E+001  -1.024922306259121E-002 
