# Electrode atom charges in atomic unit
# -------------------------------------
# Charge:   1 au = 1.602176565e-19 C = 1 e
# step        0
-9.422516170534581E-004
-2.336361021865715E-004
-1.093324239922444E-003
+1.668557004457249E-004
-6.146429357736882E-004
+6.110067513132438E-004
+4.013802080621373E-004
+1.283807789688473E-004
+1.054089334704268E-004
-2.442559624105794E-004
-5.224719124420799E-004
-6.286568410204617E-004
+8.593395426293642E-005
+8.677121949703224E-004
+9.495450610596494E-004
+1.444137876624928E-003
+1.134405462023339E-003
+2.647947822348512E-004
+9.467133225675925E-006
-4.863759934207060E-004
-4.532043235134322E-004
+4.031773810932909E-004
-1.986577397916472E-004
+4.043757951223579E-004
+1.122763968133487E-003
+1.180249548697766E-003
+1.152911774187591E-003
+8.773769374882371E-004
+7.674208899598581E-004
-1.592072588129000E-004
-5.633086625206821E-004
+3.550540405586538E-004
+9.856651316019602E-004
+2.590527524324223E-003
+1.460811103487122E-003
+1.780640953891711E-003
+9.502641176946941E-004
-2.489341363101089E-004
+5.760605289529964E-004
-1.881703738753412E-004
+3.739420017754724E-004
-6.783756223771537E-004
-4.198735023630209E-004
+5.336542849600375E-004
+2.177208168088141E-003
+2.341809365126027E-003
+2.550441611978225E-003
+1.125305080192562E-003
-3.277202085718674E-004
-1.302050986718268E-003
-1.399001211644780E-003
-2.036855440577615E-003
-1.038851902785001E-003
-1.482039513635334E-003
-1.045656973363123E-003
-7.322193341671604E-004
+1.256116464768397E-003
-2.196778250878739E-005
+6.202017040950146E-004
-6.061239919951247E-004
-8.068443131212895E-004
-1.138892101280076E-003
-1.924500920731458E-003
-2.060346730950035E-003
-1.707627603224244E-003
-5.314715231060374E-004
-1.030675010159971E-003
-2.667954406287722E-004
-8.776221533557397E-004
-7.815670054532427E-004
-9.224829833368212E-004
-7.220092786874769E-004
-2.905675305505974E-003
+1.020710774161518E-003
+1.893250985902843E-003
-1.723873767114533E-004
+2.313084587243096E-004
-5.238981980179137E-003
-5.136375643100958E-003
+5.550034392947885E-004
-5.188799538682326E-004
-2.119008078637818E-003
-5.975193825717025E-004
-6.875135276978343E-004
+3.545886223171169E-003
-1.492979694115787E-003
-1.590548219690274E-003
+1.038004412135708E-003
+9.545038625074173E-004
+6.925260844025588E-004
-1.840625136786534E-004
+1.783425991950231E-004
+6.993156015309588E-003
+2.562645608637969E-003
-6.214728356392435E-003
-5.164993116808837E-003
-9.438290510364697E-004
+1.869507011249491E-003
-2.297076933515111E-003
+1.110770626848054E-003
-2.244668730665234E-003
-2.340583065940858E-003
+9.849200910437622E-004
-2.825730158431434E-003
-3.124641601953063E-003
-5.030627424798351E-004
+6.541634322721799E-003
-1.500539283591114E-003
-3.895587807700549E-003
-3.540573376331128E-003
-7.231869521359822E-005
-2.530078632060248E-004
-8.836171507968430E-004
+3.467241910629568E-004
+3.516686086847074E-004
+1.379257754323421E-003
-2.844338798465400E-003
-1.756773389716155E-003
-2.113394614739780E-003
-5.223146622819339E-003
-1.123244990313081E-002
+7.869027797565554E-004
+6.810386229927843E-003
-8.098187037047277E-005
+6.528607516468527E-004
-5.924029772496464E-003
+2.671701951001846E-003
+3.503938154275948E-005
-2.131701128129082E-003
-5.372422335719637E-004
+3.936785155587707E-003
+5.350121132273975E-003
+3.692546356471649E-004
+4.779843837731546E-003
+6.828939702007582E-004
-5.751320431805103E-004
+6.684263193829107E-003
-1.305990114336018E-003
-6.607700034247157E-003
+6.156316931073749E-003
+8.380323869099520E-003
-5.110805643293785E-004
-9.831662350785317E-004
-3.200382504361397E-003
+3.551995119360900E-002
-1.633676288191042E-004
-9.458206310525578E-003
+7.555749344419677E-003
-4.377385618597795E-003
-3.513547628313081E-002
-1.929706879208431E-002
-6.894401642699267E-003
-3.984559964209905E-002
-2.036343626592427E-002
-3.033701612358655E-002
-1.835085372545541E-002
-3.066579236528843E-002
+2.170520318434584E-002
+5.347620368321294E-003
+1.189052967562011E-003
+2.384422741986380E-002
-1.838105326819997E-002
-5.557803224581661E-002
+3.651259122195264E-003
+2.318074130394686E-002
+1.673668643261419E-002
-4.638790223878621E-002
+7.107560304139360E-004
+1.465288240566855E-003
-1.969810191964256E-002
+2.126639599431348E-003
-2.853533761910109E-002
-4.430023216523834E-002
-3.028572708645317E-002
-8.623126114808834E-003
-2.478679091756527E-003
-1.674180254794674E-002
-1.454642301907977E-003
+2.515681071820748E-002
+2.315813001002259E-002
-2.788825815443425E-002
-1.778262490813372E-002
-3.336088726746651E-002
+8.246664572184689E-003
-9.544371861814204E-003
-2.734017559961487E-003
+1.022551100773608E-002
+2.093178573648983E-002
-2.612817762529886E-002
-1.649818900401163E-002
-4.327794562099976E-002
-8.861268962803148E-002
-6.231001347046022E-002
+1.181526284024010E-002
+3.153213342007286E-002
+5.103894789036983E-002
-1.349655120398752E-002
+1.251851269447487E-002
-9.871536461310547E-003
+3.097223679957592E-002
+2.559348840646588E-003
-2.973910607007028E-002
+3.784544697636763E-002
-1.512304294734133E-002
-4.587349573638234E-002
+7.637731976660314E-002
+3.029566027648014E-002
+3.048923770545499E-002
+1.471489919991519E-002
-8.478007425311906E-003
+2.867632649285003E-002
+2.362993775403566E-002
+1.106667595841419E-002
-2.084442325231776E-002
-3.342564617079997E-002
-3.299156810452459E-002
-3.109769889522692E-002
-2.187728756301844E-002
-1.663402138963364E-002
+1.784933658610981E-002
+2.538692462091682E-002
+3.531670366705695E-002
+1.617579578724661E-002
+1.596353774192862E-002
+2.380004825105227E-002
+6.470654867675281E-003
+4.039656892098412E-003
-5.271180773840875E-002
+2.591022529195102E-002
+1.466361318028684E-002
+7.828168269506199E-002
+1.126327223957572E-002
+1.540101593044670E-002
+2.903395594202616E-002
+2.205576728602053E-003
-1.013720143934656E-002
-3.968901896513140E-002
+4.643043011629541E-003
-9.868096306901239E-003
+4.273753948519477E-002
+5.288870905094716E-003
+1.925361181353752E-002
-3.481351355606032E-003
+1.735884661820592E-003
-1.091189937438529E-002
-7.703869566227829E-003
-1.335124692434807E-002
+7.652682989556500E-003
+3.656953011627813E-002
+7.914499640744976E-002
+3.904744175676075E-002
+3.440945584065695E-002
+7.235014503534047E-003
-1.684609862436905E-002
-1.732465431799584E-002
+9.876606726271622E-003
+4.005956005918757E-002
-3.641069197765207E-002
-6.900784062105310E-002
-4.760582963026306E-003
+6.858875086317190E-002
+3.170966996756513E-002
+6.501802892361412E-002
+1.463274565578955E-002
+5.142970837952437E-003
+7.338195453382893E-003
+1.249120913077802E-002
-4.422640196551691E-002
-7.685992299434843E-003
+3.010056688500538E-002
-3.366182283670959E-002
-5.244105929977091E-002
+1.399178908019892E-001
+1.634638332221101E-004
+9.598842165541068E-003
-3.761344657213766E-003
-1.601029804432133E-002
+4.510452156307315E-002
-2.850701929355731E-002
-1.201173494572558E-002
-2.847063049483006E-002
+1.972866155130829E-002
+3.769278871338426E-003
+1.635459002420381E-002
-4.859602111098606E-002
-1.567626461163857E-003
-3.608271979540035E-002
-2.942922852549730E-002
+4.662390554163793E-004
-2.791686442283949E-005
+4.305545418711860E-003
-5.883308849342602E-003
-1.879144085727686E-003
+2.870722375854266E-003
+5.813564180381667E-003
+1.448476296455770E-003
+1.240491204250209E-003
+1.024739005634730E-003
+1.930644403219069E-003
-1.875806814298301E-003
+2.417079698653111E-003
-2.548328537038132E-003
-1.865952758695910E-003
+1.024056492295615E-002
+7.352182838814849E-003
-1.833907589006101E-003
-2.285738109552982E-003
-5.894518137953959E-003
+6.713918776471544E-003
+1.776362191225401E-003
-4.609736706527289E-003
+1.533858616312632E-003
-5.518086228786774E-003
+6.573313366499002E-003
+3.432684915380408E-003
-2.363302158288531E-003
+1.460040000599351E-003
-1.514172408847378E-003
+2.877433204837189E-004
-2.045232103402797E-003
-1.840398128490929E-003
+1.715723693735662E-003
+3.673507367833589E-003
-3.752636761689633E-003
+1.868532175245778E-003
-1.267336315817682E-003
-4.622394757699599E-003
+3.563446464498490E-003
+2.927141777135519E-003
+4.647601916077091E-004
-1.017343679597565E-002
+5.547690623177980E-004
+4.269971414621449E-003
+5.601101833211502E-003
-1.930385751891008E-003
+8.247611988749327E-003
-2.138505544704314E-003
-9.355856659028160E-004
-5.407298572815031E-003
-3.550630989294953E-003
-3.699038503029840E-004
-5.198142184398836E-003
-4.313347950240492E-003
+6.300518961757125E-004
+7.160337181353746E-004
+6.539650808109414E-003
-4.184082080667904E-004
+7.384135273780390E-004
+1.336838333888748E-003
+1.636751552892609E-003
-4.142633689421338E-003
-6.519413720860917E-004
-1.655753871995261E-003
+4.712445433251861E-004
-8.418937320473299E-005
+2.111670205405078E-003
-5.940586122885213E-004
-8.172844016968720E-003
+2.057168943925305E-003
-1.283125065948514E-004
+6.813731495214976E-004
+7.510126005025243E-004
+1.543480856279030E-003
+5.461165415986727E-004
-4.935811748178108E-005
-1.022731294651923E-003
-9.242663912659987E-004
-5.112935371097234E-004
-2.630131918856504E-004
-7.754190855385239E-004
-1.087179762476748E-003
-6.423396226886058E-004
-9.893849308459011E-005
+6.370493963151162E-004
+4.621746798323773E-004
+9.993799896959384E-005
-2.283870078255664E-004
-8.974811958672255E-004
-7.198219441396808E-004
+1.112802492684264E-004
+2.891035443149900E-004
-1.778448913405973E-004
-1.015361970118728E-003
-5.762758267419411E-004
+3.189238178289262E-004
-4.633454591001673E-004
+1.259346028092269E-004
-7.710576761404787E-004
-8.163255367895448E-004
-5.388777151731842E-004
-4.905833207846627E-004
-2.675181268065471E-004
-2.308600238183096E-004
-1.072467174132188E-003
-5.413847219552638E-004
-8.264981153475453E-004
-1.635652495540073E-003
-1.002704032136292E-003
-8.160705772345625E-004
+9.234001688387696E-005
-4.097093284563097E-004
+8.492071191599650E-004
+5.682355787519065E-004
+3.144996084545492E-004
-9.634413036457419E-004
-1.417509772091016E-003
-1.799789212288717E-003
-2.054189362098701E-003
-1.026523014900092E-003
+1.230469354302842E-003
+7.589739651845964E-004
+2.057954699547101E-003
+1.138831609735129E-003
+1.262457088114732E-003
+1.449754426988917E-003
+1.623067567920474E-003
-3.551227237545608E-004
-1.284944684517021E-004
-1.112933322831347E-003
-6.276406469059534E-004
+7.426596152159153E-004
+1.866183421911122E-003
+2.521892101484864E-003
+1.541395511267467E-003
+1.504214838279767E-003
-1.220687913893635E-005
+1.142321734904416E-003
+5.911938217340121E-004
+1.055110081510859E-003
-4.180443927654034E-004
-5.754006016574669E-004
-1.793919765442615E-004
# step        1
-9.255577443363941E-004
-2.532374930474826E-004
-1.131285185214746E-003
+1.550478528468814E-004
-6.001651306610509E-004
+6.449693210095562E-004
+4.355849170183622E-004
+1.457152573096964E-004
+1.270878437732089E-004
-1.985643657353413E-004
-4.593657222926556E-004
-5.516577068040795E-004
+1.467115425946586E-004
+8.519650615998564E-004
+9.129712992500004E-004
+1.397536170608966E-003
+1.132063865285304E-003
+2.482256761313385E-004
+1.436879651021471E-005
-4.686754403935301E-004
-4.424257125267601E-004
+4.461874300216074E-004
-1.009985407590997E-004
+5.223271280856113E-004
+1.148751414637511E-003
+1.116772059720337E-003
+1.075084006086327E-003
+8.267689166036687E-004
+7.281530195110901E-004
-1.637318810945451E-004
-5.674759138544725E-004
+3.650997815459110E-004
+1.009934031639844E-003
+2.610439195971773E-003
+1.535816925326027E-003
+1.822777203151693E-003
+9.394560542691463E-004
-2.755503604472532E-004
+5.286479228991979E-004
-1.887466458083729E-004
+3.856111531629752E-004
-6.568223036730064E-004
-4.068286915575464E-004
+5.007207919199426E-004
+2.154896731579866E-003
+2.295165144665923E-003
+2.560610635566282E-003
+1.131884441607228E-003
-3.261765503306537E-004
-1.313827948867002E-003
-1.416061571660209E-003
-2.038775378164644E-003
-1.014323525510826E-003
-1.472120337191781E-003
-1.065113231456706E-003
-7.904787632225655E-004
+1.176059748353351E-003
-9.848700337636645E-005
+5.940065495261026E-004
-6.062194083283543E-004
-8.015587210814092E-004
-1.156248738195152E-003
-1.942017829680487E-003
-2.075885893061181E-003
-1.700931067277075E-003
-5.093675984292732E-004
-1.036390921468006E-003
-2.668329383106430E-004
-9.396411859369808E-004
-7.779286941356706E-004
-9.382212407465412E-004
-6.875448588917235E-004
-2.906263832094506E-003
+9.651924207498929E-004
+1.832507322113301E-003
-2.694728560758257E-004
+2.993323448642765E-004
-5.144525061086048E-003
-5.275674914171628E-003
+5.151948369113178E-004
-5.270302975924402E-004
-2.187101529759867E-003
-6.491788078598272E-004
-6.250146375548302E-004
+3.512379205702111E-003
-1.508182275835104E-003
-1.510985531003566E-003
+1.053961400049923E-003
+9.738057318738969E-004
+7.472506688478535E-004
-1.742082590874621E-004
+1.767138524188698E-004
+6.998113337694392E-003
+2.491135855342724E-003
-6.186681210201372E-003
-5.195196147135805E-003
-9.364016459751407E-004
+1.862809819286468E-003
-2.226989866464279E-003
+1.148684363061421E-003
-2.305581782006047E-003
-2.339172491538589E-003
+1.002613179478392E-003
-2.872799160665183E-003
-3.125021239360692E-003
-5.964056181065774E-004
+6.410270838390933E-003
-1.380219803224143E-003
-3.827128802490373E-003
-3.398922218547111E-003
-5.027251665999942E-005
-3.211512555314544E-004
-8.559031688313368E-004
+3.229190819974926E-004
+3.599250780588656E-004
+1.364726017732517E-003
-2.911588203827545E-003
-1.738364676381965E-003
-2.119242180625585E-003
-5.311570578162541E-003
-1.143862257564300E-002
+6.607235513275010E-004
+6.777982923169389E-003
-6.917156398044849E-005
+6.250457094741346E-004
-5.877175029078993E-003
+2.725542434364210E-003
+2.954101444630127E-005
-2.184691536090806E-003
-5.752828479619564E-004
+3.954871898303560E-003
+5.453185414246063E-003
+5.019639282240656E-004
+4.816840385482986E-003
+6.593490777182339E-004
-5.329632779821566E-004
+6.845309397705566E-003
-1.318769357798077E-003
-6.766097892704452E-003
+6.130893612956124E-003
+8.469566368007189E-003
-4.225130260534118E-004
-1.023277303863528E-003
-3.202676102791162E-003
+3.641308053115400E-002
-3.992923929488105E-004
-9.330401738693784E-003
+7.169121776889420E-003
-3.942378370238431E-003
-3.506156194160687E-002
-2.104531050571438E-002
-7.724513364667950E-003
-3.992895900521146E-002
-2.151660017199498E-002
-3.147737674877941E-002
-1.842907598080559E-002
-3.047445350498236E-002
+2.192419463019100E-002
+4.978630131593259E-003
+2.996701489341553E-003
+2.510366979384374E-002
-1.754527375879313E-002
-5.436374790040522E-002
+3.475048343441354E-003
+2.303019032765375E-002
+1.593834682126036E-002
-4.820510340301679E-002
+1.455290090202577E-003
+1.517377915490749E-003
-1.878661543208045E-002
+3.385267458433000E-003
-2.816563344448400E-002
-4.333566668723395E-002
-3.099352332362896E-002
-8.218676123849704E-003
-2.314646457284641E-003
-1.814667199889970E-002
-2.415372035992978E-003
+2.400535635726131E-002
+2.191898610534212E-002
-2.739087880078174E-002
-1.751572561180881E-002
-3.238964265638842E-002
+8.424228347888760E-003
-1.013696774452871E-002
-2.005739376158381E-003
+9.725282730500060E-003
+2.041296320014740E-002
-2.648243294695957E-002
-1.651940241127571E-002
-4.340060465753486E-002
-8.573840327153337E-002
-6.337348802941419E-002
+1.001942452387557E-002
+3.086407133356773E-002
+5.125167748925352E-002
-1.314302575075047E-002
+1.163019725255897E-002
-9.150596002692539E-003
+3.077371278862788E-002
+9.224871750110006E-004
-3.058662457370060E-002
+3.713444416637525E-002
-1.530536190855248E-002
-4.468527888025153E-002
+7.646923130834227E-002
+3.036675233091512E-002
+3.093003908353638E-002
+1.559796615506229E-002
-7.462184187080375E-003
+2.745324630470889E-002
+2.248525579255599E-002
+1.248513071879317E-002
-2.027181570495766E-002
-3.211125711206574E-002
-3.222497461539755E-002
-3.105817659674254E-002
-2.368507685611626E-002
-1.770090948836562E-002
+1.835713437579744E-002
+2.704002740173561E-002
+3.757860844879201E-002
+1.680019919638440E-002
+1.662196966644333E-002
+2.439173481369367E-002
+7.730935185283726E-003
+5.434140631554276E-003
-5.300772109258600E-002
+2.742638217226719E-002
+1.419676498660452E-002
+7.717508319140390E-002
+1.211472462413832E-002
+1.620964555445305E-002
+2.839286737733029E-002
+3.260727803200617E-003
-8.964908160133027E-003
-3.978750552838953E-002
+4.625952185672302E-003
-8.991217545188250E-003
+4.718423708460735E-002
+6.179233519504807E-003
+1.524018076267028E-002
-6.010569856981232E-003
+9.810758944408095E-004
-1.158283008202457E-002
-8.210775600930652E-003
-1.352584443658164E-002
+8.844721479035002E-003
+3.690626416038229E-002
+7.882511601853501E-002
+4.087712326591581E-002
+3.476342846829292E-002
+7.448126152721370E-003
-1.683629632840773E-002
-1.731545290853129E-002
+1.044213701525387E-002
+4.008004920889682E-002
-3.556897380599423E-002
-6.514173730998472E-002
-6.339357516744576E-003
+6.790366014569402E-002
+3.059529930349854E-002
+6.532244259180414E-002
+1.577075677440809E-002
+4.934078740162859E-003
+6.789412752895850E-003
+1.073904703617910E-002
-4.419284486060214E-002
-6.799688390391791E-003
+2.978125414897148E-002
-3.537392699336950E-002
-5.325610997173270E-002
+1.369294690504999E-001
-3.657645201018087E-003
+9.824999463540481E-003
-3.310789869141988E-003
-1.532459202765278E-002
+4.476347205482602E-002
-2.859254666335586E-002
-1.301045359315548E-002
-2.837291112291278E-002
+2.036388256895138E-002
+3.430011825752305E-003
+1.649276495910257E-002
-5.096154467175223E-002
-7.956948981168019E-004
-3.678330464243457E-002
-2.850592474375873E-002
+4.656859196627195E-004
-1.442303332028751E-004
+4.243362935723205E-003
-5.865760275294364E-003
-1.794824389667550E-003
+2.951282269375968E-003
+5.801373103814458E-003
+1.399614637781556E-003
+1.273491687422384E-003
+1.217339200047617E-003
+1.878796951513302E-003
-1.790221405876541E-003
+2.547277972697117E-003
-2.592302739565260E-003
-1.946270406094861E-003
+1.015464547397825E-002
+7.371647339494811E-003
-1.807700101028430E-003
-2.298383416768555E-003
-5.664149508410585E-003
+6.597628833852911E-003
+1.699829004883687E-003
-4.489701348401015E-003
+1.715084271128548E-003
-5.575135234183732E-003
+6.114203194709547E-003
+3.379854591274830E-003
-2.302898582806357E-003
+1.382747264003445E-003
-1.587979744750191E-003
+2.494292346168824E-004
-1.925057459499569E-003
-1.799818708038607E-003
+1.769279976563741E-003
+3.711409216191642E-003
-3.674095330931039E-003
+1.884145976393716E-003
-1.158286198139615E-003
-4.729305314074840E-003
+3.535862149735220E-003
+2.987369922388695E-003
+5.257680368053870E-004
-1.018206503483187E-002
+5.049676581266091E-004
+4.250383670884927E-003
+5.504095218602714E-003
-1.820180409421949E-003
+8.265627650191133E-003
-2.149337070003577E-003
-1.015007766833129E-003
-5.460409604223178E-003
-3.551188109599668E-003
-3.225544618564880E-004
-5.291001153927296E-003
-4.462865646334256E-003
+6.840247459282383E-004
+6.736866765572868E-004
+6.390874838952798E-003
-4.598172053679265E-004
+8.146180357499520E-004
+1.296160805826309E-003
+1.660904489862342E-003
-4.182158879106570E-003
-6.756949626656550E-004
-1.726474818975426E-003
+4.574828055679761E-004
-3.067175870162652E-005
+2.091850093621703E-003
-6.078865298098027E-004
-8.402670121582049E-003
+2.096474247504874E-003
-1.334241420315792E-004
+6.888788504713473E-004
+7.498727595165483E-004
+1.548277632866012E-003
+5.570869801050391E-004
-3.248800999247651E-005
-1.005326265528117E-003
-9.385649434647651E-004
-5.289752435111646E-004
-2.862066110410462E-004
-8.294242128466643E-004
-1.119539169813781E-003
-6.674687804925999E-004
-1.142176862874554E-004
+6.499018108142233E-004
+4.746261663960058E-004
+1.469908597191910E-004
-1.883049660775867E-004
-8.491433187747067E-004
-7.002625664297247E-004
+1.099282846417630E-004
+2.652750020424374E-004
-2.260210777488342E-004
-1.069652330244249E-003
-6.181436400562554E-004
+3.164321946599399E-004
-4.203573133530943E-004
+1.783214536607346E-004
-7.386928230552415E-004
-7.785169313346684E-004
-5.437941530765480E-004
-4.767480951850598E-004
-2.842901805088381E-004
-2.579841939599772E-004
-1.108283590774382E-003
-5.887070957501872E-004
-8.426564130361534E-004
-1.613329566324800E-003
-9.908112637672236E-004
-7.820826698366526E-004
+1.000703465946272E-004
-4.117414428579734E-004
+8.472102261393695E-004
+5.371642717761638E-004
+2.984531802131678E-004
-9.808824281554059E-004
-1.425487814303794E-003
-1.803267110459818E-003
-2.043673761128648E-003
-1.035018824479723E-003
+1.217882757977713E-003
+7.549059457872901E-004
+2.066797438838492E-003
+1.135910423507130E-003
+1.272510338027319E-003
+1.448756321090769E-003
+1.609308213065498E-003
-3.697985420825763E-004
-1.175138984249085E-004
-1.103137038008875E-003
-6.204952559281649E-004
+7.474985032745322E-004
+1.877417164437008E-003
+2.529013035127268E-003
+1.563381847256945E-003
+1.528081501703987E-003
-2.706842577270930E-006
+1.135477410260811E-003
+5.784820945702647E-004
+1.067701273133401E-003
-4.233789406079428E-004
-5.742982146283498E-004
-1.879338645175404E-004
