# Energy in atomic unit (1 Eh = 2625.499640 kJ/mol)
# -------------------------------------------------
# step        Hamiltonian             Total energy           Kinetic energy         Potential energy     Thermostat/barostat en.  External field energy 
       0 -1.218391904510809E+003 -1.218391904510809E+003  2.180334522381329E+000 -1.220572239033190E+003  0.000000000000000E+000  0.000000000000000E+000
