# Energy in atomic unit (1 Eh = 2625.499640 kJ/mol)
# -------------------------------------------------
# step        Hamiltonian             Total energy           Kinetic energy         Potential energy     Thermostat/barostat en.  External field energy 
       0 -2.797288607447503E+000 -2.797288607447503E+000  6.072770847732111E-001 -3.404565692220714E+000  0.000000000000000E+000  0.000000000000000E+000
       1 -2.985189758256687E+000 -2.985191191673975E+000  4.206713314101089E-001 -3.405862523084084E+000  1.433417287605555E-006  0.000000000000000E+000
       2 -2.985232753040242E+000 -2.985208125458163E+000  4.251998105287881E-001 -3.410407935986952E+000 -2.462758207794060E-005  0.000000000000000E+000
       3 -2.985241611483501E+000 -2.985164780159160E+000  4.327261713501185E-001 -3.417890951509278E+000 -7.683132434183369E-005  0.000000000000000E+000
       4 -2.985294349626555E+000 -2.985139029539156E+000  4.428136330056031E-001 -3.427952662544759E+000 -1.553200873991577E-004  0.000000000000000E+000
       5 -2.985346303840528E+000 -2.985086153895564E+000  4.548412585495089E-001 -3.439927412445073E+000 -2.601499449639113E-004  0.000000000000000E+000
       6 -2.985415146139796E+000 -2.985023999584822E+000  4.680540101343929E-001 -3.453078009719215E+000 -3.911465549745190E-004  0.000000000000000E+000
       7 -2.985472183250898E+000 -2.984924402566508E+000  4.816255363879023E-001 -3.466549938954411E+000 -5.477806843896572E-004  0.000000000000000E+000
       8 -2.985556073386916E+000 -2.984826976457123E+000  4.947323100515729E-001 -3.479559286508696E+000 -7.290969297937260E-004  0.000000000000000E+000
       9 -2.985574223359726E+000 -2.984640507944983E+000  5.066245162817055E-001 -3.491265024226688E+000 -9.337154147430122E-004  0.000000000000000E+000
      10 -2.985625248027781E+000 -2.984465339442628E+000  5.166900983575108E-001 -3.501155437800139E+000 -1.159908585152272E-003  0.000000000000000E+000
