# Energy in atomic unit (1 Eh = 2625.499640 kJ/mol)
# -------------------------------------------------
# step         Hamiltonian             Total energy           Kinetic energy         Potential energy        Thermostat energy    External field energy 
       0 -3.153685318314603E+000 -3.153685318314603E+000  7.073635621383934E-001 -3.861048880452997E+000  0.000000000000000E+000  0.000000000000000E+000
       1 -3.153801097580134E+000 -3.153723862446962E+000  7.250888226887682E-001 -3.878812685135730E+000 -7.723513317258605E-005  0.000000000000000E+000
