ITEM: TIMESTEP
       0
ITEM: NUMBER OF ATOMS
     430
ITEM: BOX BOUNDS
    0.000   18.650
    0.000   18.650
    0.000   18.650
ITEM: ATOMS element id molid x y z q vx vy vz
O                    1             1         18.259   14.621    1.568          0.000    0.000    0.000    0.000
O                    2             2         14.080    1.665    6.044          0.000    0.000    0.000    0.000
O                    3             3          4.981   15.815   12.411          0.000    0.000    0.000    0.000
O                    4             4          6.664   11.048    7.367          0.000    0.000    0.000    0.000
O                    5             5         15.557    4.101   15.247          0.000    0.000    0.000    0.000
O                    6             6          1.098    4.713    9.623          0.000    0.000    0.000    0.000
O                    7             7          9.690    1.072    9.888          0.000    0.000    0.000    0.000
O                    8             8         12.098    9.640    6.610          0.000    0.000    0.000    0.000
O                    9             9          7.811   12.236   17.176          0.000    0.000    0.000    0.000
O                   10            10         11.215   10.412   16.241          0.000    0.000    0.000    0.000
O                   11            11          2.020   15.395   11.573          0.000    0.000    0.000    0.000
O                   12            12         12.901    1.729   16.996          0.000    0.000    0.000    0.000
O                   13            13          0.818    9.360   17.801          0.000    0.000    0.000    0.000
O                   14            14          3.189    5.437    6.225          0.000    0.000    0.000    0.000
O                   15            15         11.511    4.703   12.586          0.000    0.000    0.000    0.000
O                   16            16         15.071   16.376    7.057          0.000    0.000    0.000    0.000
O                   17            17          6.367   13.649   11.564          0.000    0.000    0.000    0.000
O                   18            18         13.435    7.569   15.568          0.000    0.000    0.000    0.000
O                   19            19          6.318    0.331    2.185          0.000    0.000    0.000    0.000
O                   20            20          4.529    1.528   10.089          0.000    0.000    0.000    0.000
O                   21            21         13.733    8.915   10.752          0.000    0.000    0.000    0.000
O                   22            22          0.698   17.018   16.912          0.000    0.000    0.000    0.000
O                   23            23          8.560    8.172    2.450          0.000    0.000    0.000    0.000
O                   24            24          4.542   13.445   16.164          0.000    0.000    0.000    0.000
O                   25            25          3.099   15.025   14.336          0.000    0.000    0.000    0.000
O                   26            26         10.353   11.314   10.353          0.000    0.000    0.000    0.000
O                   27            27         10.729   11.836    7.566          0.000    0.000    0.000    0.000
O                   28            28          1.855    7.765    3.851          0.000    0.000    0.000    0.000
O                   29            29          7.945   10.802   14.703          0.000    0.000    0.000    0.000
O                   30            30          9.831   17.361   11.721          0.000    0.000    0.000    0.000
O                   31            31          0.318   16.736    4.866          0.000    0.000    0.000    0.000
O                   32            32          3.405    0.043    2.477          0.000    0.000    0.000    0.000
O                   33            33          7.623    8.182   14.224          0.000    0.000    0.000    0.000
O                   34            34          3.055    8.842    8.134          0.000    0.000    0.000    0.000
O                   35            35         12.933   18.184    0.856          0.000    0.000    0.000    0.000
O                   36            36         17.495   13.093    3.591          0.000    0.000    0.000    0.000
O                   37            37          8.273    4.081    1.129          0.000    0.000    0.000    0.000
O                   38            38         16.649   12.385   10.346          0.000    0.000    0.000    0.000
O                   39            39          2.077    6.904   18.297          0.000    0.000    0.000    0.000
O                   40            40         11.067   15.427    3.431          0.000    0.000    0.000    0.000
O                   41            41          6.082    8.657    4.259          0.000    0.000    0.000    0.000
O                   42            42          8.686    1.969    3.286          0.000    0.000    0.000    0.000
O                   43            43         18.609    2.097   13.844          0.000    0.000    0.000    0.000
O                   44            44          8.198    4.850    9.297          0.000    0.000    0.000    0.000
O                   45            45          4.220    6.303    3.623          0.000    0.000    0.000    0.000
O                   46            46          1.071   12.043    8.680          0.000    0.000    0.000    0.000
O                   47            47         13.599   13.775   13.346          0.000    0.000    0.000    0.000
O                   48            48         13.071   12.062   11.028          0.000    0.000    0.000    0.000
O                   49            49         16.501   16.488   14.970          0.000    0.000    0.000    0.000
O                   50            50          1.462    2.781    1.690          0.000    0.000    0.000    0.000
O                   51            51         18.474   14.521    6.654          0.000    0.000    0.000    0.000
O                   52            52          7.043    3.630    4.951          0.000    0.000    0.000    0.000
O                   53            53          1.513    1.045   11.056          0.000    0.000    0.000    0.000
O                   54            54         10.329   12.988   17.077          0.000    0.000    0.000    0.000
O                   55            55          8.280    3.177   11.347          0.000    0.000    0.000    0.000
O                   56            56          3.763   14.621    9.359          0.000    0.000    0.000    0.000
O                   57            57         14.889    9.566    2.863          0.000    0.000    0.000    0.000
O                   58            58         10.684    3.254   18.441          0.000    0.000    0.000    0.000
O                   59            59         11.267   11.439    4.383          0.000    0.000    0.000    0.000
O                   60            60         15.515    5.204    5.332          0.000    0.000    0.000    0.000
O                   61            61         14.496   16.377   12.977          0.000    0.000    0.000    0.000
O                   62            62          7.318   14.448    0.091          0.000    0.000    0.000    0.000
O                   63            63          2.647   17.676   15.123          0.000    0.000    0.000    0.000
O                   64            64         15.668   18.571    1.626          0.000    0.000    0.000    0.000
O                   65            65          3.857    7.828   14.380          0.000    0.000    0.000    0.000
O                   66            66         10.133    0.395   16.856          0.000    0.000    0.000    0.000
O                   67            67          6.178   15.659   16.030          0.000    0.000    0.000    0.000
O                   68            68          8.881    4.728   15.155          0.000    0.000    0.000    0.000
O                   69            69         13.548    7.536    7.800          0.000    0.000    0.000    0.000
O                   70            70          5.047   11.669   14.238          0.000    0.000    0.000    0.000
O                   71            71         12.388    4.845    8.180          0.000    0.000    0.000    0.000
O                   72            72          7.061    6.729   11.626          0.000    0.000    0.000    0.000
O                   73            73          0.864   13.811   17.672          0.000    0.000    0.000    0.000
O                   74            74         14.059    1.733    9.556          0.000    0.000    0.000    0.000
O                   75            75         11.647   17.463    6.222          0.000    0.000    0.000    0.000
O                   76            76          3.055   12.509   11.061          0.000    0.000    0.000    0.000
O                   77            77          2.502    1.748   14.724          0.000    0.000    0.000    0.000
O                   78            78          3.079   11.664   17.897          0.000    0.000    0.000    0.000
O                   79            79          8.562    8.457    8.072          0.000    0.000    0.000    0.000
O                   80            80          9.640    0.928    6.027          0.000    0.000    0.000    0.000
O                   81            81         18.254    8.275   11.191          0.000    0.000    0.000    0.000
O                   82            82         11.448    5.873   18.532          0.000    0.000    0.000    0.000
O                   83            83         10.865   12.847    1.053          0.000    0.000    0.000    0.000
O                   84            84          5.151    2.217    7.429          0.000    0.000    0.000    0.000
O                   85            85          7.518   13.719   14.042          0.000    0.000    0.000    0.000
O                   86            86          6.769   12.741    3.664          0.000    0.000    0.000    0.000
O                   87            87          5.956    9.367   11.136          0.000    0.000    0.000    0.000
O                   88            88          1.037   17.621   12.871          0.000    0.000    0.000    0.000
O                   89            89          5.814    4.309   16.151          0.000    0.000    0.000    0.000
O                   90            90         15.650    8.959   16.838          0.000    0.000    0.000    0.000
O                   91            91         10.153   14.295   10.642          0.000    0.000    0.000    0.000
O                   92            92         14.865    5.385    1.340          0.000    0.000    0.000    0.000
O                   93            93          4.920   17.322    9.807          0.000    0.000    0.000    0.000
O                   94            94         11.737    2.936   10.411          0.000    0.000    0.000    0.000
O                   95            95          5.953    2.107   12.592          0.000    0.000    0.000    0.000
O                   96            96          3.855    4.330    2.088          0.000    0.000    0.000    0.000
O                   97            97         10.785    4.679    2.685          0.000    0.000    0.000    0.000
O                   98            98          0.599   14.689    9.294          0.000    0.000    0.000    0.000
O                   99            99          6.519    6.153    1.646          0.000    0.000    0.000    0.000
O                  100           100          0.508    4.082    3.918          0.000    0.000    0.000    0.000
O                  101           101         10.107   13.333   13.207          0.000    0.000    0.000    0.000
O                  102           102          7.567   16.261   10.355          0.000    0.000    0.000    0.000
O                  103           103         10.592    7.827   15.289          0.000    0.000    0.000    0.000
O                  104           104          7.019   16.508    4.037          0.000    0.000    0.000    0.000
O                  105           105         15.478    0.974   14.960          0.000    0.000    0.000    0.000
O                  106           106          7.174   17.470    6.556          0.000    0.000    0.000    0.000
O                  107           107          1.229   12.037    3.396          0.000    0.000    0.000    0.000
O                  108           108         14.803   10.136    5.555          0.000    0.000    0.000    0.000
O                  109           109         18.145   17.406    2.214          0.000    0.000    0.000    0.000
O                  110           110         12.612   17.399   14.585          0.000    0.000    0.000    0.000
O                  111           111          0.317    8.605   15.069          0.000    0.000    0.000    0.000
O                  112           112         17.881    3.487    0.141          0.000    0.000    0.000    0.000
O                  113           113          1.885    3.087    6.342          0.000    0.000    0.000    0.000
O                  114           114          3.148   17.012    5.005          0.000    0.000    0.000    0.000
O                  115           115          5.169    1.664   16.969          0.000    0.000    0.000    0.000
O                  116           116         18.174    4.338   16.003          0.000    0.000    0.000    0.000
O                  117           117          7.712   15.074    7.998          0.000    0.000    0.000    0.000
O                  118           118          2.344    2.231   17.538          0.000    0.000    0.000    0.000
O                  119           119          6.655   18.081   13.184          0.000    0.000    0.000    0.000
O                  120           120         10.335    0.321   13.981          0.000    0.000    0.000    0.000
O                  121           121         13.671    3.141    3.602          0.000    0.000    0.000    0.000
O                  122           122         17.790   10.223    7.630          0.000    0.000    0.000    0.000
O                  123           123          6.919    5.621    7.000          0.000    0.000    0.000    0.000
O                  124           124         16.962   18.291    6.374          0.000    0.000    0.000    0.000
O                  125           125          0.467   13.135   12.186          0.000    0.000    0.000    0.000
O                  126           126          5.254   13.652    6.901          0.000    0.000    0.000    0.000
O                  127           127         11.960   11.115   13.384          0.000    0.000    0.000    0.000
O                  128           128         10.535    6.916    9.344          0.000    0.000    0.000    0.000
O                  129           129          8.750   11.433    5.376          0.000    0.000    0.000    0.000
O                  130           130         10.668   15.130   15.284          0.000    0.000    0.000    0.000
O                  131           131         17.423    6.051   12.775          0.000    0.000    0.000    0.000
O                  132           132         15.805    9.750    9.257          0.000    0.000    0.000    0.000
O                  133           133         11.097    7.747    4.398          0.000    0.000    0.000    0.000
O                  134           134         12.629   16.403   10.894          0.000    0.000    0.000    0.000
O                  135           135          8.761   14.193    2.439          0.000    0.000    0.000    0.000
O                  136           136         13.429   10.451   17.987          0.000    0.000    0.000    0.000
O                  137           137         15.999   17.710   10.345          0.000    0.000    0.000    0.000
O                  138           138          1.913    9.659    1.899          0.000    0.000    0.000    0.000
O                  139           139         15.758   13.186   15.859          0.000    0.000    0.000    0.000
O                  140           140          0.984    4.176   12.340          0.000    0.000    0.000    0.000
O                  141           141          3.938    5.326   10.707          0.000    0.000    0.000    0.000
O                  142           142         16.274   15.499   17.704          0.000    0.000    0.000    0.000
O                  143           143         18.471   18.621    8.903          0.000    0.000    0.000    0.000
O                  144           144         15.259   17.708    4.157          0.000    0.000    0.000    0.000
O                  145           145          4.606   18.062    7.229          0.000    0.000    0.000    0.000
O                  146           146          3.587    9.816   12.560          0.000    0.000    0.000    0.000
O                  147           147         14.742   12.539    2.863          0.000    0.000    0.000    0.000
O                  148           148         12.673    8.434    1.290          0.000    0.000    0.000    0.000
O                  149           149         13.384    6.039    3.822          0.000    0.000    0.000    0.000
O                  150           150          5.484    5.785   13.779          0.000    0.000    0.000    0.000
O                  151           151         14.578    4.455   12.769          0.000    0.000    0.000    0.000
O                  152           152         16.764    7.602    3.556          0.000    0.000    0.000    0.000
O                  153           153          5.164   12.743    0.853          0.000    0.000    0.000    0.000
O                  154           154         15.601    4.447   10.012          0.000    0.000    0.000    0.000
O                  155           155          0.169   14.813   15.277          0.000    0.000    0.000    0.000
O                  156           156         12.976   14.201    9.281          0.000    0.000    0.000    0.000
O                  157           157          3.467    3.673   12.977          0.000    0.000    0.000    0.000
O                  158           158         12.961   17.994    8.592          0.000    0.000    0.000    0.000
O                  159           159          4.787    6.051   18.087          0.000    0.000    0.000    0.000
O                  160           160         18.389    2.621    8.210          0.000    0.000    0.000    0.000
O                  161           161          2.227   12.095    5.916          0.000    0.000    0.000    0.000
O                  162           162         14.043    1.863   12.757          0.000    0.000    0.000    0.000
O                  163           163          9.175    6.536   17.183          0.000    0.000    0.000    0.000
O                  164           164         16.218    2.734    2.106          0.000    0.000    0.000    0.000
O                  165           165          6.852    7.780   17.295          0.000    0.000    0.000    0.000
O                  166           166         14.803    7.274   13.149          0.000    0.000    0.000    0.000
O                  167           167         12.911   13.729    4.745          0.000    0.000    0.000    0.000
O                  168           168         16.074   10.752   12.625          0.000    0.000    0.000    0.000
O                  169           169         11.252    9.023   11.565          0.000    0.000    0.000    0.000
O                  170           170         18.091   11.243   14.282          0.000    0.000    0.000    0.000
O                  171           171          4.743   10.982    9.193          0.000    0.000    0.000    0.000
O                  172           172          2.153    5.074   16.283          0.000    0.000    0.000    0.000
O                  173           173          8.924   16.658   17.083          0.000    0.000    0.000    0.000
O                  174           174         10.435   16.982    1.075          0.000    0.000    0.000    0.000
O                  175           175          0.112    5.870    1.550          0.000    0.000    0.000    0.000
O                  176           176         17.616    6.546    8.923          0.000    0.000    0.000    0.000
O                  177           177         17.369   11.216   17.187          0.000    0.000    0.000    0.000
O                  178           178          4.929   14.658    4.351          0.000    0.000    0.000    0.000
O                  179           179         14.338   15.671    1.499          0.000    0.000    0.000    0.000
O                  180           180          2.187   16.517    1.041          0.000    0.000    0.000    0.000
O                  181           181         16.460   12.179    5.992          0.000    0.000    0.000    0.000
O                  182           182          7.803   11.308   11.456          0.000    0.000    0.000    0.000
O                  183           183         11.813    2.798   14.439          0.000    0.000    0.000    0.000
O                  184           184          4.436    9.484   16.728          0.000    0.000    0.000    0.000
O                  185           185         11.765    1.690    1.936          0.000    0.000    0.000    0.000
O                  186           186         10.624   10.164    1.976          0.000    0.000    0.000    0.000
O                  187           187         16.868    2.161   11.175          0.000    0.000    0.000    0.000
O                  188           188          1.591    6.293   13.776          0.000    0.000    0.000    0.000
O                  189           189         16.496    7.859    0.754          0.000    0.000    0.000    0.000
O                  190           190          4.763    6.732    8.394          0.000    0.000    0.000    0.000
O                  191           191          1.687    9.989   10.451          0.000    0.000    0.000    0.000
O                  192           192         18.461    6.338    5.311          0.000    0.000    0.000    0.000
O                  193           193         13.768    5.362   17.268          0.000    0.000    0.000    0.000
O                  194           194         17.497    7.015   16.738          0.000    0.000    0.000    0.000
O                  195           195         17.067   18.234   12.845          0.000    0.000    0.000    0.000
O                  196           196         16.452   15.054    9.503          0.000    0.000    0.000    0.000
O                  197           197         14.388   13.693    7.053          0.000    0.000    0.000    0.000
O                  198           198         13.752   13.089    0.366          0.000    0.000    0.000    0.000
O                  199           199          3.073   13.906    2.576          0.000    0.000    0.000    0.000
O                  200           200         11.572    2.562    7.029          0.000    0.000    0.000    0.000
O                  201           201         10.417   14.574    6.998          0.000    0.000    0.000    0.000
O                  202           202          5.682    2.940    0.759          0.000    0.000    0.000    0.000
O                  203           203          9.441    6.474   13.036          0.000    0.000    0.000    0.000
O                  204           204         17.864    1.031   16.795          0.000    0.000    0.000    0.000
O                  205           205          4.296    2.787    4.378          0.000    0.000    0.000    0.000
O                  206           206          4.351   17.044   18.090          0.000    0.000    0.000    0.000
O                  207           207          4.897   10.426    2.187          0.000    0.000    0.000    0.000
O                  208           208          7.229    9.952    0.459          0.000    0.000    0.000    0.000
O                  209           209         16.043    3.525    7.342          0.000    0.000    0.000    0.000
O                  210           210          8.241    7.379    5.364          0.000    0.000    0.000    0.000
O                  211           211          3.440    9.566    5.365          0.000    0.000    0.000    0.000
O                  212           212          8.626    0.348    0.553          0.000    0.000    0.000    0.000
O                  213           213         17.561    1.778    4.196          0.000    0.000    0.000    0.000
O                  214           214          7.816    1.392    8.032          0.000    0.000    0.000    0.000
O                  215           215          6.917   18.364   16.022          0.000    0.000    0.000    0.000
M                  216             1         18.226   14.673    1.705         -1.040    0.000    0.000    0.000
M                  217             2         14.173    1.671    6.161         -1.040    0.000    0.000    0.000
M                  218             3          5.068   15.798   12.290         -1.040    0.000    0.000    0.000
M                  219             4          6.532   11.114    7.393         -1.040    0.000    0.000    0.000
M                  220             5         15.657    3.993   15.273         -1.040    0.000    0.000    0.000
M                  221             6          1.034    4.596    9.691         -1.040    0.000    0.000    0.000
M                  222             7          9.814    1.049    9.968         -1.040    0.000    0.000    0.000
M                  223             8         12.034    9.771    6.573         -1.040    0.000    0.000    0.000
M                  224             9          7.783   12.088   17.180         -1.040    0.000    0.000    0.000
M                  225            10         11.246   10.504   16.356         -1.040    0.000    0.000    0.000
M                  226            11          1.913   15.383   11.677         -1.040    0.000    0.000    0.000
M                  227            12         12.774    1.714   17.074         -1.040    0.000    0.000    0.000
M                  228            13          0.803    9.508   17.787         -1.040    0.000    0.000    0.000
M                  229            14          3.318    5.514    6.221         -1.040    0.000    0.000    0.000
M                  230            15         11.624    4.694   12.684         -1.040    0.000    0.000    0.000
M                  231            16         14.968   16.293    7.127         -1.040    0.000    0.000    0.000
M                  232            17          6.481   13.610   11.475         -1.040    0.000    0.000    0.000
M                  233            18         13.353    7.590   15.444         -1.040    0.000    0.000    0.000
M                  234            19          6.191    0.410    2.174         -1.040    0.000    0.000    0.000
M                  235            20          4.640    1.625   10.059         -1.040    0.000    0.000    0.000
M                  236            21         13.659    8.861   10.871         -1.040    0.000    0.000    0.000
M                  237            22          0.734   16.878   16.954         -1.040    0.000    0.000    0.000
M                  238            23          8.428    8.105    2.427         -1.040    0.000    0.000    0.000
M                  239            24          4.516   13.298   16.156         -1.040    0.000    0.000    0.000
M                  240            25          3.248   15.014   14.337         -1.040    0.000    0.000    0.000
M                  241            26         10.369   11.439   10.272         -1.040    0.000    0.000    0.000
M                  242            27         10.656   11.929    7.474         -1.040    0.000    0.000    0.000
M                  243            28          1.923    7.892    3.807         -1.040    0.000    0.000    0.000
M                  244            29          7.994   10.734   14.579         -1.040    0.000    0.000    0.000
M                  245            30          9.946   17.402   11.808         -1.040    0.000    0.000    0.000
M                  246            31          0.223   16.693    4.974         -1.040    0.000    0.000    0.000
M                  247            32          3.343   -0.085    2.524         -1.040    0.000    0.000    0.000
M                  248            33          7.672    8.049   14.275         -1.040    0.000    0.000    0.000
M                  249            34          3.199    8.836    8.178         -1.040    0.000    0.000    0.000
M                  250            35         12.976   18.300    0.940         -1.040    0.000    0.000    0.000
M                  251            36         17.363   13.049    3.647         -1.040    0.000    0.000    0.000
M                  252            37          8.277    4.178    1.243         -1.040    0.000    0.000    0.000
M                  253            38         16.734   12.473   10.260         -1.040    0.000    0.000    0.000
M                  254            39          1.946    6.961   18.344         -1.040    0.000    0.000    0.000
M                  255            40         10.958   15.480    3.520         -1.040    0.000    0.000    0.000
M                  256            41          5.933    8.640    4.259         -1.040    0.000    0.000    0.000
M                  257            42          8.749    1.912    3.163         -1.040    0.000    0.000    0.000
M                  258            43         18.682    2.164   13.956         -1.040    0.000    0.000    0.000
M                  259            44          8.223    4.961    9.200         -1.040    0.000    0.000    0.000
M                  260            45          4.083    6.268    3.571         -1.040    0.000    0.000    0.000
M                  261            46          1.112   12.158    8.593         -1.040    0.000    0.000    0.000
M                  262            47         13.528   13.907   13.352         -1.040    0.000    0.000    0.000
M                  263            48         13.010   12.052   11.165         -1.040    0.000    0.000    0.000
M                  264            49         16.557   16.393   15.072         -1.040    0.000    0.000    0.000
M                  265            50          1.447    2.689    1.807         -1.040    0.000    0.000    0.000
M                  266            51         18.441   14.443    6.778         -1.040    0.000    0.000    0.000
M                  267            52          7.013    3.577    4.814         -1.040    0.000    0.000    0.000
M                  268            53          1.642    0.990   11.109         -1.040    0.000    0.000    0.000
M                  269            54         10.246   12.988   17.202         -1.040    0.000    0.000    0.000
M                  270            55          8.334    3.182   11.207         -1.040    0.000    0.000    0.000
M                  271            56          3.742   14.636    9.506         -1.040    0.000    0.000    0.000
M                  272            57         14.890    9.432    2.795         -1.040    0.000    0.000    0.000
M                  273            58         10.621    3.386   18.475         -1.040    0.000    0.000    0.000
M                  274            59         11.193   11.557    4.440         -1.040    0.000    0.000    0.000
M                  275            60         15.635    5.115    5.332         -1.040    0.000    0.000    0.000
M                  276            61         14.506   16.425   13.119         -1.040    0.000    0.000    0.000
M                  277            62          7.335   14.483   -0.054         -1.040    0.000    0.000    0.000
M                  278            63          2.601   17.552   15.194         -1.040    0.000    0.000    0.000
M                  279            64         15.736   18.470    1.714         -1.040    0.000    0.000    0.000
M                  280            65          3.873    7.689   14.325         -1.040    0.000    0.000    0.000
M                  281            66         10.034    0.355   16.961         -1.040    0.000    0.000    0.000
M                  282            67          6.137   15.530   15.966         -1.040    0.000    0.000    0.000
M                  283            68          8.894    4.701   15.008         -1.040    0.000    0.000    0.000
M                  284            69         13.474    7.645    7.870         -1.040    0.000    0.000    0.000
M                  285            70          5.056   11.528   14.187         -1.040    0.000    0.000    0.000
M                  286            71         12.368    4.994    8.187         -1.040    0.000    0.000    0.000
M                  287            72          7.164    6.634   11.572         -1.040    0.000    0.000    0.000
M                  288            73          0.894   13.720   17.788         -1.040    0.000    0.000    0.000
M                  289            74         14.020    1.877    9.569         -1.040    0.000    0.000    0.000
M                  290            75         11.630   17.581    6.314         -1.040    0.000    0.000    0.000
M                  291            76          3.012   12.530   11.203         -1.040    0.000    0.000    0.000
M                  292            77          2.489    1.652   14.839         -1.040    0.000    0.000    0.000
M                  293            78          3.222   11.624   17.919         -1.040    0.000    0.000    0.000
M                  294            79          8.479    8.466    7.948         -1.040    0.000    0.000    0.000
M                  295            80          9.691    1.052    5.960         -1.040    0.000    0.000    0.000
M                  296            81         18.277    8.424   11.191         -1.040    0.000    0.000    0.000
M                  297            82         11.588    5.927   18.540         -1.040    0.000    0.000    0.000
M                  298            83         10.785   12.794    1.168         -1.040    0.000    0.000    0.000
M                  299            84          5.255    2.229    7.321         -1.040    0.000    0.000    0.000
M                  300            85          7.402   13.645   13.981         -1.040    0.000    0.000    0.000
M                  301            86          6.630   12.744    3.607         -1.040    0.000    0.000    0.000
M                  302            87          5.910    9.253   11.223         -1.040    0.000    0.000    0.000
M                  303            88          0.973   17.647   13.004         -1.040    0.000    0.000    0.000
M                  304            89          5.894    4.317   16.024         -1.040    0.000    0.000    0.000
M                  305            90         15.615    8.822   16.787         -1.040    0.000    0.000    0.000
M                  306            91         10.228   14.424   10.632         -1.040    0.000    0.000    0.000
M                  307            92         14.908    5.438    1.206         -1.040    0.000    0.000    0.000
M                  308            93          4.876   17.438    9.723         -1.040    0.000    0.000    0.000
M                  309            94         11.727    3.086   10.413         -1.040    0.000    0.000    0.000
M                  310            95          6.084    2.041   12.559         -1.040    0.000    0.000    0.000
M                  311            96          3.869    4.200    2.015         -1.040    0.000    0.000    0.000
M                  312            97         10.906    4.758    2.644         -1.040    0.000    0.000    0.000
M                  313            98          0.543   14.751    9.418         -1.040    0.000    0.000    0.000
M                  314            99          6.369    6.154    1.646         -1.040    0.000    0.000    0.000
M                  315           100          0.502    3.957    4.002         -1.040    0.000    0.000    0.000
M                  316           101          9.988   13.386   13.133         -1.040    0.000    0.000    0.000
M                  317           102          7.548   16.406   10.389         -1.040    0.000    0.000    0.000
M                  318           103         10.535    7.871   15.421         -1.040    0.000    0.000    0.000
M                  319           104          7.058   16.651    4.061         -1.040    0.000    0.000    0.000
M                  320           105         15.457    0.917   15.097         -1.040    0.000    0.000    0.000
M                  321           106          7.126   17.577    6.650         -1.040    0.000    0.000    0.000
M                  322           107          1.197   12.180    3.361         -1.040    0.000    0.000    0.000
M                  323           108         14.677   10.145    5.474         -1.040    0.000    0.000    0.000
M                  324           109         18.276   17.346    2.255         -1.040    0.000    0.000    0.000
M                  325           110         12.463   17.391   14.600         -1.040    0.000    0.000    0.000
M                  326           111          0.307    8.735   15.144         -1.040    0.000    0.000    0.000
M                  327           112         17.905    3.420    0.273         -1.040    0.000    0.000    0.000
M                  328           113          2.026    3.109    6.389         -1.040    0.000    0.000    0.000
M                  329           114          3.069   16.890    4.969         -1.040    0.000    0.000    0.000
M                  330           115          5.246    1.692   16.843         -1.040    0.000    0.000    0.000
M                  331           116         18.279    4.356   16.109         -1.040    0.000    0.000    0.000
M                  332           117          7.695   15.215    8.048         -1.040    0.000    0.000    0.000
M                  333           118          2.461    2.311   17.489         -1.040    0.000    0.000    0.000
M                  334           119          6.579   18.022   13.299         -1.040    0.000    0.000    0.000
M                  335           120         10.389    0.437   14.060         -1.040    0.000    0.000    0.000
M                  336           121         13.658    3.197    3.740         -1.040    0.000    0.000    0.000
M                  337           122         17.817   10.253    7.774         -1.040    0.000    0.000    0.000
M                  338           123          6.987    5.613    6.867         -1.040    0.000    0.000    0.000
M                  339           124         16.937   18.239    6.512         -1.040    0.000    0.000    0.000
M                  340           125          0.336   13.075   12.226         -1.040    0.000    0.000    0.000
M                  341           126          5.271   13.699    7.042         -1.040    0.000    0.000    0.000
M                  342           127         11.905   11.183   13.505         -1.040    0.000    0.000    0.000
M                  343           128         10.465    7.026    9.419         -1.040    0.000    0.000    0.000
M                  344           129          8.608   11.461    5.414         -1.040    0.000    0.000    0.000
M                  345           130         10.626   14.986   15.285         -1.040    0.000    0.000    0.000
M                  346           131         17.528    6.046   12.669         -1.040    0.000    0.000    0.000
M                  347           132         15.732    9.827    9.363         -1.040    0.000    0.000    0.000
M                  348           133         11.207    7.704    4.491         -1.040    0.000    0.000    0.000
M                  349           134         12.721   16.286   10.912         -1.040    0.000    0.000    0.000
M                  350           135          8.626   14.143    2.398         -1.040    0.000    0.000    0.000
M                  351           136         13.570   10.504   17.982         -1.040    0.000    0.000    0.000
M                  352           137         15.984   17.844   10.410         -1.040    0.000    0.000    0.000
M                  353           138          1.791    9.735    1.858         -1.040    0.000    0.000    0.000
M                  354           139         15.685   13.310   15.816         -1.040    0.000    0.000    0.000
M                  355           140          1.032    4.058   12.419         -1.040    0.000    0.000    0.000
M                  356           141          3.791    5.326   10.736         -1.040    0.000    0.000    0.000
M                  357           142         16.332   15.515   17.841         -1.040    0.000    0.000    0.000
M                  358           143         18.465   18.579    9.047         -1.040    0.000    0.000    0.000
M                  359           144         15.235   17.696    4.305         -1.040    0.000    0.000    0.000
M                  360           145          4.532   18.144    7.126         -1.040    0.000    0.000    0.000
M                  361           146          3.469    9.723   12.566         -1.040    0.000    0.000    0.000
M                  362           147         14.701   12.441    2.757         -1.040    0.000    0.000    0.000
M                  363           148         12.609    8.569    1.280         -1.040    0.000    0.000    0.000
M                  364           149         13.528    6.020    3.785         -1.040    0.000    0.000    0.000
M                  365           150          5.461    5.737   13.639         -1.040    0.000    0.000    0.000
M                  366           151         14.585    4.334   12.858         -1.040    0.000    0.000    0.000
M                  367           152         16.870    7.507    3.509         -1.040    0.000    0.000    0.000
M                  368           153          5.294   12.687    0.904         -1.040    0.000    0.000    0.000
M                  369           154         15.661    4.558   10.094         -1.040    0.000    0.000    0.000
M                  370           155          0.290   14.764   15.351         -1.040    0.000    0.000    0.000
M                  371           156         13.044   14.073    9.244         -1.040    0.000    0.000    0.000
M                  372           157          3.521    3.546   13.036         -1.040    0.000    0.000    0.000
M                  373           158         12.949   18.065    8.723         -1.040    0.000    0.000    0.000
M                  374           159          4.665    5.999   18.018         -1.040    0.000    0.000    0.000
M                  375           160         18.492    2.524    8.161         -1.040    0.000    0.000    0.000
M                  376           161          2.276   12.103    5.775         -1.040    0.000    0.000    0.000
M                  377           162         14.149    1.781   12.690         -1.040    0.000    0.000    0.000
M                  378           163          9.254    6.408   17.179         -1.040    0.000    0.000    0.000
M                  379           164         16.086    2.664    2.114         -1.040    0.000    0.000    0.000
M                  380           165          6.893    7.636   17.308         -1.040    0.000    0.000    0.000
M                  381           166         14.929    7.194   13.159         -1.040    0.000    0.000    0.000
M                  382           167         12.888   13.758    4.600         -1.040    0.000    0.000    0.000
M                  383           168         15.960   10.803   12.541         -1.040    0.000    0.000    0.000
M                  384           169         11.223    9.166   11.603         -1.040    0.000    0.000    0.000
M                  385           170         17.961   11.265   14.353         -1.040    0.000    0.000    0.000
M                  386           171          4.733   10.997    9.342         -1.040    0.000    0.000    0.000
M                  387           172          2.121    5.221   16.277         -1.040    0.000    0.000    0.000
M                  388           173          9.052   16.578   17.083         -1.040    0.000    0.000    0.000
M                  389           174         10.570   16.958    1.135         -1.040    0.000    0.000    0.000
M                  390           175          0.123    5.729    1.600         -1.040    0.000    0.000    0.000
M                  391           176         17.722    6.569    9.026         -1.040    0.000    0.000    0.000
M                  392           177         17.221   11.233   17.168         -1.040    0.000    0.000    0.000
M                  393           178          5.032   14.690    4.455         -1.040    0.000    0.000    0.000
M                  394           179         14.311   15.807    1.557         -1.040    0.000    0.000    0.000
M                  395           180          2.304   16.423    1.029         -1.040    0.000    0.000    0.000
M                  396           181         16.497   12.033    5.994         -1.040    0.000    0.000    0.000
M                  397           182          7.825   11.196   11.358         -1.040    0.000    0.000    0.000
M                  398           183         11.929    2.715   14.485         -1.040    0.000    0.000    0.000
M                  399           184          4.474    9.352   16.669         -1.040    0.000    0.000    0.000
M                  400           185         11.816    1.830    1.915         -1.040    0.000    0.000    0.000
M                  401           186         10.552   10.112    2.098         -1.040    0.000    0.000    0.000
M                  402           187         16.985    2.245   11.135         -1.040    0.000    0.000    0.000
M                  403           188          1.456    6.281   13.713         -1.040    0.000    0.000    0.000
M                  404           189         16.536    7.825    0.614         -1.040    0.000    0.000    0.000
M                  405           190          4.862    6.641    8.460         -1.040    0.000    0.000    0.000
M                  406           191          1.720   10.020   10.308         -1.040    0.000    0.000    0.000
M                  407           192         18.587    6.353    5.232         -1.040    0.000    0.000    0.000
M                  408           193         13.793    5.365   17.120         -1.040    0.000    0.000    0.000
M                  409           194         17.544    6.979   16.600         -1.040    0.000    0.000    0.000
M                  410           195         17.096   18.309   12.972         -1.040    0.000    0.000    0.000
M                  411           196         16.387   15.184    9.468         -1.040    0.000    0.000    0.000
M                  412           197         14.395   13.619    6.923         -1.040    0.000    0.000    0.000
M                  413           198         13.663   13.195    0.424         -1.040    0.000    0.000    0.000
M                  414           199          3.220   13.878    2.580         -1.040    0.000    0.000    0.000
M                  415           200         11.701    2.631    6.996         -1.040    0.000    0.000    0.000
M                  416           201         10.334   14.697    7.020         -1.040    0.000    0.000    0.000
M                  417           202          5.791    2.895    0.666         -1.040    0.000    0.000    0.000
M                  418           203          9.584    6.473   13.080         -1.040    0.000    0.000    0.000
M                  419           204         17.931    0.955   16.905         -1.040    0.000    0.000    0.000
M                  420           205          4.211    2.771    4.255         -1.040    0.000    0.000    0.000
M                  421           206          4.394   17.130   17.974         -1.040    0.000    0.000    0.000
M                  422           207          4.882   10.285    2.138         -1.040    0.000    0.000    0.000
M                  423           208          7.280    9.814    0.428         -1.040    0.000    0.000    0.000
M                  424           209         16.121    3.498    7.468         -1.040    0.000    0.000    0.000
M                  425           210          8.262    7.494    5.270         -1.040    0.000    0.000    0.000
M                  426           211          3.363    9.601    5.488         -1.040    0.000    0.000    0.000
M                  427           212          8.558    0.235    0.624         -1.040    0.000    0.000    0.000
M                  428           213         17.433    1.712    4.152         -1.040    0.000    0.000    0.000
M                  429           214          7.965    1.381    8.020         -1.040    0.000    0.000    0.000
M                  430           215          7.013   18.266   16.085         -1.040    0.000    0.000    0.000
